<svg width="7" height="17" viewBox="0 0 7 17" fill="none" xmlns="http://www.w3.org/2000/svg">
<path d="M2.10262 0H7L7 17C6.74453 12.0687 3.5145 7.47581 0.618892 4.31029C-0.700728 2.86766 0.228049 0 2.10262 0Z" fill="#EBF5C9"/>
</svg>
